<svg width="580" height="400" xmlns="http://www.w3.org/2000/svg">
 <!-- Created with Method Draw - http://github.com/duopixel/Method-Draw/ -->

 <g>
  <title>background</title>
  <rect fill="none" id="canvas_background" height="402" width="582" y="-1" x="-1"/>
 </g>
 <g>
  <title>Layer 1</title>
  <!-- Created with Method Draw - http://github.com/duopixel/Method-Draw/ -->
  <ellipse stroke="#000" ry="180.500002" rx="266.500011" id="svg_4" cy="202.937496" cx="308.99998" stroke-width="1.5" fill="#6b7070"/>
  <ellipse stroke="#000" fill="#ff0000" stroke-width="1.5" cx="306.352556" cy="202.996806" id="svg_2" rx="233.852549" ry="151.639317"/>
  <ellipse stroke="#ffaaaa" fill="#007fff" stroke-width="0" cx="308.000004" cy="202.508929" id="svg_3" rx="207.000014" ry="133.071437"/>
  <text stroke="#000" transform="matrix(9.073438404950364,0,0,9.242248595235885,-1184.336122321385,-1727.5481589031183) " xml:space="preserve" text-anchor="start" font-family="Oswald, sans-serif" font-size="24" id="svg_1" y="217.057021" x="147.753042" stroke-width="0" fill="#ffffff">EX</text>
  <ellipse ry="9.5" rx="15.5" id="svg_6" cy="36.9375" cx="304" stroke-opacity="null" stroke-width="1.5" stroke="#000" fill="#0000ff"/>
  <ellipse ry="9.5" rx="15.5" id="svg_7" cy="200.9375" cx="57" stroke-opacity="null" stroke-width="1.5" stroke="#000" fill="#0000ff"/>
  <ellipse ry="9.5" rx="15.5" id="svg_8" cy="368.9375" cx="307" stroke-opacity="null" stroke-width="1.5" stroke="#000" fill="#0000ff"/>
  <ellipse ry="9.5" rx="15.5" id="svg_5" cy="194.9375" cx="559" stroke-opacity="null" stroke-width="1.5" stroke="#000" fill="#0000ff"/>
 </g>
</svg>