<svg width="580" height="400" xmlns="http://www.w3.org/2000/svg">
 <!-- Created with Method Draw - http://github.com/duopixel/Method-Draw/ -->

 <g>
  <title>background</title>
  <rect x="-1" y="-1" width="582" height="402" id="canvas_background" fill="none"/>
 </g>
 <g>
  <title>Layer 1</title>
  <ellipse stroke="#ffaaaa" ry="162.000005" rx="252.000009" id="svg_3" cy="209.437495" cx="297" stroke-width="0" fill="#bf5f00"/>
  <!-- Created with Method Draw - http://github.com/duopixel/Method-Draw/ -->
  <text fill="#ffffff" stroke-width="0" stroke-opacity="null" fill-opacity="null" x="167.205428" y="190.153811" id="svg_2" font-size="24" font-family="Oswald, sans-serif" text-anchor="start" xml:space="preserve" transform="matrix(9.821378707885742,0,0,9.821378707885742,-1521.6878271102905,-1574.0647631883621) " stroke="#ffaaaa">BM</text>
  <ellipse stroke="#fff" ry="167.755947" rx="253.000011" id="svg_4" cy="207.681553" cx="296.500011" stroke-width="1.5" fill="#ff566f"/>
  <text stroke="#000000" transform="matrix(11.090955407844376,0,0,11.517037180971215,-1313.8631899183847,-2178.8693854352387) " xml:space="preserve" text-anchor="start" font-family="Helvetica, Arial, sans-serif" font-size="24" id="svg_6" y="215.177016" x="124.865648" stroke-width="0" fill="#fff">GM</text>
 </g>
</svg>