<svg width="580" height="400" xmlns="http://www.w3.org/2000/svg">
 <!-- Created with Method Draw - http://github.com/duopixel/Method-Draw/ -->

 <g>
  <title>background</title>
  <rect x="-1" y="-1" width="582" height="402" id="canvas_background" fill="none"/>
 </g>
 <g>
  <title>Layer 1</title>
  <ellipse stroke="#fff" ry="188.5" rx="280.99998" id="svg_1" cy="209.499986" cx="297.500001" stroke-width="0" fill="#4c4c49"/>
  <ellipse stroke="#ffaaaa" transform="rotate(0.5058861374855042 295.5000000000071,203.93749999999918) " ry="126.548789" rx="142.447241" id="svg_3" cy="203.937493" cx="295.499984" stroke-width="0" fill="#ff7f00"/>
  <!-- Created with Method Draw - http://github.com/duopixel/Method-Draw/ -->
  <text stroke="#ffaaaa" transform="matrix(6.010782718658447,0,0,5.592592716217041,-1114.7425679415464,-821.9305776804686) " fill="#ffffff" stroke-width="0" stroke-opacity="null" fill-opacity="null" x="217.315788" y="191.142834" id="svg_2" font-size="24" font-family="Oswald, sans-serif" text-anchor="start" xml:space="preserve">BH</text>
  <ellipse stroke="#fff" ry="20" rx="30.500001" id="svg_5" cy="47" cx="291.999997" stroke-opacity="null" stroke-width="0" fill="#ff7f00"/>
  <ellipse stroke="#fff" ry="35" rx="47" id="svg_6" cy="213" cx="69.5" stroke-opacity="null" stroke-width="0" fill="#ff7f00"/>
  <ellipse stroke="#fff" ry="24.000001" rx="31" id="svg_7" cy="369.999999" cx="299.499998" stroke-opacity="null" stroke-width="0" fill="#ff7f00"/>
  <ellipse stroke="#fff" ry="30.999999" rx="43.000001" id="svg_4" cy="215.999999" cx="524.499999" stroke-opacity="null" stroke-width="0" fill="#ff7f00"/>
 </g>
</svg>