<svg width="580" height="400" xmlns="http://www.w3.org/2000/svg">
 <!-- Created with Method Draw - http://github.com/duopixel/Method-Draw/ -->

 <g>
  <title>Layer 1</title>
  <ellipse stroke="#ffaaaa" ry="162.000005" rx="252.000009" id="svg_3" cy="209.437495" cx="297" stroke-width="0" fill="#ffaa56"/>
  <text stroke="#000" transform="matrix(7.514269302750805,0,0,7.514269302750805,-1315.6448039356458,-1363.5799812022) " font-weight="bold" xml:space="preserve" text-anchor="start" font-family="Oswald, sans-serif" font-size="24" id="svg_5" y="217.750363" x="197.602129" stroke-opacity="null" stroke-width="0" fill="#ffffff">PC</text>
  <!-- Created with Method Draw - http://github.com/duopixel/Method-Draw/ -->
 </g>
</svg>